<?xml version="1.0" encoding="UTF-8" standalone="no"?>
<svg
   xmlns:dc="http://purl.org/dc/elements/1.1/"
   xmlns:cc="http://creativecommons.org/ns#"
   xmlns:rdf="http://www.w3.org/1999/02/22-rdf-syntax-ns#"
   xmlns:svg="http://www.w3.org/2000/svg"
   xmlns="http://www.w3.org/2000/svg"
   xmlns:xlink="http://www.w3.org/1999/xlink"
   xmlns:sodipodi="http://sodipodi.sourceforge.net/DTD/sodipodi-0.dtd"
   xmlns:inkscape="http://www.inkscape.org/namespaces/inkscape"
   viewBox="0 0 128 128"
   style="display:inline;enable-background:new"
   version="1.0"
   id="svg11300"
   height="128"
   width="128"
   sodipodi:docname="grock-icon.svg"
   inkscape:version="0.92.4 5da689c313, 2019-01-14">
  <sodipodi:namedview
     pagecolor="#ffffff"
     bordercolor="#666666"
     borderopacity="1"
     objecttolerance="10"
     gridtolerance="10"
     guidetolerance="10"
     inkscape:pageopacity="0"
     inkscape:pageshadow="2"
     inkscape:window-width="2736"
     inkscape:window-height="1746"
     id="namedview4618"
     showgrid="false"
     inkscape:zoom="1.4142136"
     inkscape:cx="-105.12678"
     inkscape:cy="175.42182"
     inkscape:window-x="0"
     inkscape:window-y="30"
     inkscape:window-maximized="0"
     inkscape:current-layer="svg11300" />
  <title
     id="title4162">Adwaita Icon Template</title>
  <defs
     id="defs3">
    <clipPath
       id="clipPath941-5-2"
       clipPathUnits="userSpaceOnUse">
      <rect
         ry="32"
         rx="32"
         y="-116"
         x="32"
         height="320"
         width="448"
         id="rect943-2-6"
         style="display:inline;opacity:1;vector-effect:none;fill:none;fill-opacity:1;stroke:#000000;stroke-width:4;stroke-linecap:butt;stroke-linejoin:miter;stroke-miterlimit:4;stroke-dasharray:none;stroke-dashoffset:0;stroke-opacity:1;marker:none;marker-start:none;marker-mid:none;marker-end:none;paint-order:normal;enable-background:new" />
    </clipPath>
    <clipPath
       id="clipPath1289"
       clipPathUnits="userSpaceOnUse">
      <path
         id="path1291"
         d="m 64,-148 h 64 l 64,-64 64,64 h 192 c 17.728,0 32,14.272 32,32 v 288 c 0,17.728 -14.272,32 -32,32 H 256 l -64,-64 -64,64 H 64 C 46.272,204 32,189.728 32,172 v -288 c 0,-17.728 14.408898,-34.19889 32,-32 z"
         style="display:inline;opacity:1;vector-effect:none;fill:none;fill-opacity:1;stroke:#000000;stroke-width:4;stroke-linecap:round;stroke-linejoin:round;stroke-miterlimit:4;stroke-dasharray:none;stroke-dashoffset:0;stroke-opacity:1;marker:none;marker-start:none;marker-mid:none;marker-end:none;paint-order:normal;enable-background:new" />
    </clipPath>
    <linearGradient
       id="linearGradient1283">
      <stop
         id="stop1279"
         offset="0"
         style="stop-color:#a51d2d;stop-opacity:1;" />
      <stop
         id="stop1281"
         offset="1"
         style="stop-color:#ce1921;stop-opacity:1" />
    </linearGradient>
    <linearGradient
       y2="-180"
       x2="336"
       y1="62"
       x1="336"
       gradientTransform="matrix(0.24999999,0,0,0.24999999,8.0003004,225)"
       gradientUnits="userSpaceOnUse"
       id="linearGradient1114-3"
       xlink:href="#linearGradient1277" />
    <linearGradient
       id="linearGradient1277">
      <stop
         style="stop-color:#d81d25;stop-opacity:1"
         offset="0"
         id="stop1273" />
      <stop
         style="stop-color:#f66151;stop-opacity:1"
         offset="1"
         id="stop1349" />
    </linearGradient>
    <linearGradient
       gradientTransform="matrix(0.25263159,0,0,0.25263159,115.03157,109.17914)"
       gradientUnits="userSpaceOnUse"
       y2="-68"
       x2="415.5"
       y1="-68"
       x1="320.5"
       id="linearGradient1285"
       xlink:href="#linearGradient1283" />
  </defs>
  <metadata
     id="metadata4">
    <rdf:RDF>
      <cc:Work
         rdf:about="">
        <dc:format>image/svg+xml</dc:format>
        <dc:type
           rdf:resource="http://purl.org/dc/dcmitype/StillImage" />
        <dc:creator>
          <cc:Agent>
            <dc:title>GNOME Design Team</dc:title>
          </cc:Agent>
        </dc:creator>
        <dc:source />
        <cc:license
           rdf:resource="http://creativecommons.org/licenses/by-sa/4.0/" />
        <dc:title>Adwaita Icon Template</dc:title>
        <dc:subject>
          <rdf:Bag />
        </dc:subject>
        <dc:date />
        <dc:rights>
          <cc:Agent>
            <dc:title />
          </cc:Agent>
        </dc:rights>
        <dc:publisher>
          <cc:Agent>
            <dc:title />
          </cc:Agent>
        </dc:publisher>
        <dc:identifier />
        <dc:relation />
        <dc:language />
        <dc:coverage />
        <dc:description />
        <dc:contributor>
          <cc:Agent>
            <dc:title />
          </cc:Agent>
        </dc:contributor>
      </cc:Work>
      <cc:License
         rdf:about="http://creativecommons.org/licenses/by-sa/4.0/">
        <cc:permits
           rdf:resource="http://creativecommons.org/ns#Reproduction" />
        <cc:permits
           rdf:resource="http://creativecommons.org/ns#Distribution" />
        <cc:requires
           rdf:resource="http://creativecommons.org/ns#Notice" />
        <cc:requires
           rdf:resource="http://creativecommons.org/ns#Attribution" />
        <cc:permits
           rdf:resource="http://creativecommons.org/ns#DerivativeWorks" />
        <cc:requires
           rdf:resource="http://creativecommons.org/ns#ShareAlike" />
      </cc:License>
    </rdf:RDF>
  </metadata>
  <g
     clip-path="url(#clipPath941-5-2)"
     id="g939-5-6"
     style="display:inline;opacity:1;enable-background:new"
     transform="matrix(0.24999999,0,0,0.24999999,-2.4963795,-109.95567)" />
  <g
     clip-path="url(#clipPath1289)"
     id="g1287"
     style="display:inline;opacity:1;enable-background:new"
     transform="matrix(0.24999999,0,0,0.24999999,-3.399739,65.16999)"
     inkscape:export-xdpi="403.71255"
     inkscape:export-ydpi="403.71255">
    <path
       id="path1093"
       d="M 256.00001,124 H 416.00002 L 416,-148 h 96 V 236 H 256 l -64,-64 -64,64 H -9.6000004e-7 L -1.2800001e-6,124 H 128 l 64,-64 z"
       style="opacity:1;vector-effect:none;fill:#cdab8f;fill-opacity:1;stroke:none;stroke-width:4;stroke-linecap:round;stroke-linejoin:round;stroke-miterlimit:4;stroke-dasharray:none;stroke-dashoffset:0;stroke-opacity:1;marker:none;marker-start:none;marker-mid:none;marker-end:none;paint-order:normal"
       inkscape:connector-curvature="0" />
    <path
       style="display:inline;opacity:1;vector-effect:none;fill:#a793ac;fill-opacity:1;stroke:none;stroke-width:1px;stroke-linecap:butt;stroke-linejoin:miter;stroke-miterlimit:4;stroke-dasharray:none;stroke-dashoffset:0;stroke-opacity:1;marker:none;marker-start:none;marker-mid:none;marker-end:none;paint-order:normal;enable-background:new"
       d="M -1.2800001e-6,123.9746 128,124.0254 V -148.00001 L -3.2000001e-6,-148 Z"
       id="rect287-9"
       inkscape:connector-curvature="0" />
    <path
       id="path1533"
       d="M 144,-164.00001 V 108 L 192.00001,60.000002 256,124.05845 400.00001,124.0584 416.00002,108 V -148.00001 H 256.00001 l -64,-64 z"
       style="display:inline;opacity:1;fill:#decd87;fill-opacity:1;stroke:none;stroke-width:1px;stroke-linecap:butt;stroke-linejoin:miter;stroke-opacity:1;enable-background:new"
       inkscape:connector-curvature="0" />
    <path
       id="path7460-26"
       d="m 399.89844,-147.89077 v 238 c 0,10.02823 -9.37384,17.94922 -16.94922,17.94922 H 256 L 192,44.58984 152.625,84.125 152,-211.94161 H 128 V 108 L -1.2800001e-6,108.0584 v 32.10156 H 127 L 192,76 l 64,64.16001 h 126.94922 c 26.42462,0 47.96327,-22.04752 49.05078,-50.05078 v -238 z"
       style="color:#000000;font-style:normal;font-variant:normal;font-weight:normal;font-stretch:normal;font-size:medium;line-height:normal;font-family:sans-serif;font-variant-ligatures:normal;font-variant-position:normal;font-variant-caps:normal;font-variant-numeric:normal;font-variant-alternates:normal;font-feature-settings:normal;text-indent:0;text-align:start;text-decoration:none;text-decoration-line:none;text-decoration-style:solid;text-decoration-color:#000000;letter-spacing:normal;word-spacing:normal;text-transform:none;writing-mode:lr-tb;direction:ltr;text-orientation:mixed;dominant-baseline:auto;baseline-shift:baseline;text-anchor:start;white-space:normal;shape-padding:0;clip-rule:nonzero;display:inline;overflow:visible;visibility:visible;opacity:1;isolation:auto;mix-blend-mode:normal;color-interpolation:sRGB;color-interpolation-filters:linearRGB;solid-color:#000000;solid-opacity:1;vector-effect:none;fill:#ffffff;fill-opacity:1;fill-rule:nonzero;stroke:none;stroke-width:32.09999847;stroke-linecap:butt;stroke-linejoin:miter;stroke-miterlimit:4;stroke-dasharray:none;stroke-dashoffset:0;stroke-opacity:1;color-rendering:auto;image-rendering:auto;shape-rendering:auto;text-rendering:auto;enable-background:accumulate"
       inkscape:connector-curvature="0" />
    <path
       id="path1179"
       d="m 128.00001,267.9746 64,0.0508 V -212.00001 L 128,-212 Z"
       style="display:inline;opacity:0.3;vector-effect:none;fill:#ffffff;fill-opacity:1;stroke:none;stroke-width:1px;stroke-linecap:butt;stroke-linejoin:miter;stroke-miterlimit:4;stroke-dasharray:none;stroke-dashoffset:0;stroke-opacity:1;marker:none;marker-start:none;marker-mid:none;marker-end:none;paint-order:normal;enable-background:new"
       inkscape:connector-curvature="0" />
    <path
       style="display:inline;opacity:0.15;vector-effect:none;fill:#000000;fill-opacity:1;stroke:none;stroke-width:1px;stroke-linecap:butt;stroke-linejoin:miter;stroke-miterlimit:4;stroke-dasharray:none;stroke-dashoffset:0;stroke-opacity:1;marker:none;marker-start:none;marker-mid:none;marker-end:none;paint-order:normal;enable-background:new"
       d="m 192.00001,267.9746 64,0.0508 V -212.00001 L 192,-212 Z"
       id="path1083"
       inkscape:connector-curvature="0" />
    <path
       style="fill:#decd87;fill-opacity:1;stroke:none;stroke-width:3.18031955px;stroke-linecap:butt;stroke-linejoin:miter;stroke-opacity:1"
       d="M 128.02816,16.343014 31.86915,28.120517 32.109546,108.28352 H 128.02816 Z"
       id="path4779"
       inkscape:connector-curvature="0" />
    <path
       style="fill:#000000;fill-opacity:1;stroke:none;stroke-width:4px;stroke-linecap:butt;stroke-linejoin:miter;stroke-opacity:1"
       d="M 32.000173,24.521835 127.90797,13.54003 v 5.048466 L 31.929249,28.873874 Z"
       id="path4781"
       inkscape:connector-curvature="0"
       sodipodi:nodetypes="ccccc" />
  </g>
  <path
     style="fill:#a793ac;fill-opacity:1;stroke:none;stroke-width:1px;stroke-linecap:butt;stroke-linejoin:miter;stroke-opacity:1"
     d="m 60.594953,67.952191 27.033201,-18.826029 8.924303,-11.304117 0.02241,-9.624746 -35.974606,-0.02731 z"
     id="path4671"
     inkscape:connector-curvature="0"
     sodipodi:nodetypes="cccccc"
     inkscape:export-xdpi="403.71255"
     inkscape:export-ydpi="403.71255" />
  <path
     style="fill:#8a6f91;stroke:none;stroke-width:1px;stroke-linecap:butt;stroke-linejoin:miter;stroke-opacity:1;fill-opacity:1"
     d="M 60.594953,67.952191 44.593741,56.361538 44.600264,12.169992 60.600261,28.169989 Z"
     id="path4673"
     inkscape:connector-curvature="0"
     inkscape:export-xdpi="403.71255"
     inkscape:export-ydpi="403.71255" />
  <path
     style="fill:#c4b7c8;fill-opacity:1;stroke:none;stroke-width:1px;stroke-linecap:butt;stroke-linejoin:miter;stroke-opacity:1"
     d="M 44.593741,56.361538 34.707393,65.812199 34.592297,22.14077 44.600264,12.169992 Z"
     id="path4675"
     inkscape:connector-curvature="0"
     sodipodi:nodetypes="ccccc"
     inkscape:export-xdpi="403.71255"
     inkscape:export-ydpi="403.71255" />
  <path
     style="fill:#000000;fill-opacity:1;stroke:none;stroke-width:1px;stroke-linecap:butt;stroke-linejoin:miter;stroke-opacity:1"
     d="m 34.677343,64.875857 9.976497,-9.670611 15.896287,12.00423 26.844295,-18.487033 9.136787,-11.569721 v 1.572377 L 87.904383,49.60425 60.632138,68.557769 44.557769,56.966799 34.709163,66.83657 Z"
     id="path4677"
     inkscape:connector-curvature="0"
     sodipodi:nodetypes="ccccccccccc"
     inkscape:export-xdpi="403.71255"
     inkscape:export-ydpi="403.71255" />
  <path
     style="fill:#000000;fill-opacity:1;stroke:none;stroke-width:1.70282125px;stroke-linecap:butt;stroke-linejoin:miter;stroke-opacity:1"
     d="m 66.341588,64.060329 5.60823,2.38802 -0.723643,-5.970051 z"
     id="path4679"
     inkscape:connector-curvature="0"
     inkscape:export-xdpi="403.71255"
     inkscape:export-ydpi="403.71255" />
  <path
     style="fill:#000000;fill-opacity:1;stroke:none;stroke-width:2.03144646px;stroke-linecap:butt;stroke-linejoin:miter;stroke-opacity:1"
     d="m 48.701196,59.601594 0.776967,6.863214 3.625848,-3.669014 z"
     id="path4741"
     inkscape:connector-curvature="0"
     inkscape:export-xdpi="403.71255"
     inkscape:export-ydpi="403.71255" />
  <path
     style="display:inline;fill:#000000;fill-opacity:1;stroke:none;stroke-width:1.70282125px;stroke-linecap:butt;stroke-linejoin:miter;stroke-opacity:1;enable-background:new"
     d="m 83.438496,51.789997 5.60823,2.38802 -0.723643,-5.970051 z"
     id="path4679-5"
     inkscape:connector-curvature="0"
     inkscape:export-xdpi="403.71255"
     inkscape:export-ydpi="403.71255" />
  <path
     style="display:inline;fill:#000000;fill-opacity:1;stroke:none;stroke-width:1.70282125px;stroke-linecap:butt;stroke-linejoin:miter;stroke-opacity:1;enable-background:new"
     d="m 16.658716,70.702654 3.828075,4.743494 2.166896,-5.609789 z"
     id="path4679-1"
     inkscape:connector-curvature="0"
     inkscape:export-xdpi="403.71255"
     inkscape:export-ydpi="403.71255" />
  <rect
     style="fill:none;fill-opacity:1;stroke:none;stroke-width:0.37417322;stroke-miterlimit:4;stroke-dasharray:none;stroke-opacity:1"
     id="rect960"
     width="121.75"
     height="121.75"
     x="-0.5"
     y="5.5000029"
     inkscape:export-xdpi="403.71255"
     inkscape:export-ydpi="403.71255" />
</svg>
